{
    "KPackageStructure": "KWin/Aurorae",
    "KPlugin": {
        "Authors": [
            {
                "Email": "gicalucejo@gmail.com",
                "Name": "jomada"
            }
        ],
        "Category": "Plasma 6 Window Decorations",
        "ServiceTypes": [
            "KWin/Aurorae"
        ],
        "EnabledByDefault": true,
        "Name": "Itchy",
        "Description" : "Itchy window decorations",
        "Id": "Itchy",
        "Version": "1.5",
        "License": "GPL_V3",
        "X-KDE-PluginInfo-blur": false,
        "X-KPackage-Dependencies": [
        ]
    }
}
